https://create.kahoot.it/details/b833c41e-7762-4a6a-9e19-46032fe1ad10

https://create.kahoot.it/details/a6bc2720-54c2-4148-859e-7b9861a9adea

https://create.kahoot.it/details/eb8f7d9b-48ec-4758-8681-691a262a3b99

Christmas movies:
https://create.kahoot.it/details/e4c882ae-e626-49f8-bc29-aca8f948ef3b